{
    "counter": {
        "! #1 Host Japan, LLC": 14,
        "..........NETMASTER SARL": 3,
        "1 Api GmbH": 8,
        "1&1 IONOS SE": 6,
        "1&1 Internet SE": 2,
        "101DOMAIN-RU": 3,
        "101Domain, Inc.": 6,
        "101domain GRS Limited": 107,
        "101domain GRS Ltd": 3,
        "101domain GRS Ltd.": 11,
        "10dencehispahard, S.L.": 34,
        "123-Reg Limited": 126,
        "17 Domain 2, Limited": 3,
        "1API": 2,
        "1API GmbH": 478,
        "1API GmbH ( https://nic.at/registrar/578 )": 2,
        "22net, Inc.": 6,
        "AC Webconnecting N.V. DBA domain.cam": 24,
        "ACTIVE-RU": 120,
        "AKKY ONLINE SOLUTIONS, S.A. DE C.V.": 12,
        "ALIBABA.COM SINGAPORE E-COMMERCE PRIVATE LIMITED": 71,
        "ARDIS-RU": 134,
        "ARDIS-SU": 109,
        "ASCIO TECHNOLOGIES Inc.": 3,
        "ATEX-RU": 26,
        "AXELNAME-RU": 15,
        "Above.com Pty Ltd.": 11,
        "Acens Technologies, S.L.U.": 9,
        "Active Technologies LLC": 3,
        "Adriahost": 3,
        "Advanced Internet Technologies, Inc. (AIT)": 16,
        "Aerotek Bilisim Sanayi ve Ticaret AS": 3,
        "Alethia Domains, LLC": 10,
        "Alibaba Cloud Computing (Beijing) Co., Ltd.": 22,
        "Alibaba Cloud Computing Ltd. d/b/a HiChina (www.net.cn)": 21,
        "Alibaba.com Singapore E-Commerce Private Limited": 12,
        "All Domains LLC": 3,
        "Amazon Registrar, Inc.": 138,
        "Arsys Internet, S.L. dba NICLINE.COM": 21,
        "Ascio Technologies Inc. ( https://nic.at/registrar/27 )": 2,
        "Ascio Technologies Inc. - DK Branch": 3,
        "Ascio Technologies Inc. Danmark - filial af Ascio Technologies Inc. USA": 3,
        "Ascio Technologies, Inc. Danmark - Filial af Ascio technologies, Inc. USA": 89,
        "Atak Domain Bilgi Teknolojileri A.S.": 18,
        "AtlanticDomains, LLC": 3,
        "Automattic Inc.": 46,
        "BEGET-RU": 43,
        "BRANDON GRAY INTERNET SERVICES INC. (dba NameJuice.com)": 3,
        "Beget LLC": 21,
        "BigRock Solutions Ltd": 26,
        "BigRock Solutions Ltd.": 1,
        "Bizcn.com, Inc.": 3,
        "Blacknight Solutions": 3,
        "BlockHost LLC": 3,
        "Blue Razor Domains, LLC": 10,
        "CCI REG S.A.": 3,
        "CENTRALNIC CANADA INC": 90,
        "CLICK PANDA SAS": 3,
        "CNOBIN INFORMATION TECHNOLOGY LIMITED": 2,
        "CPS-Datensysteme GmbH": 23,
        "CSC Corporate Domains, Inc.": 39,
        "CSL Computer Service Langenbach GmbH": 2,
        "CSL Computer Service Langenbach GmbH d/b/a joker.com": 138,
        "CSL Computer Service Langenbach GmbH d/b/a joker.com a German GmbH": 3,
        "CV Jogjacamp": 2,
        "CV. JOGJACAMP": 1,
        "Cam Connecting SARL": 3,
        "CanHost Inc.": 3,
        "Center of Ukrainian Internet Names (UKRNAMES)": 4,
        "CentralNic Ltd": 3,
        "Cheaper Domains Pty Ltd": 1,
        "Chengdu West Dimension Digital Technology Co., Ltd.": 1,
        "ChocolateChipDomains, LLC": 1,
        "Circle of Domains LLC": 3,
        "Click Registrar, LLC dba publicdomainregistry.com": 14,
        "Cloud Yuqu LLC": 3,
        "CloudFlare, Inc.": 864,
        "Cloudflare, Inc": 38,
        "Cloudflare, Inc.": 25,
        "CommuniGal Communication Ltd.": 18,
        "CommuniGal Communications Ltd.": 6,
        "Communigal Communication Ltd": 12,
        "Communigal Communications Ltd.": 4,
        "Compuglobalhypermega.com LLC": 3,
        "Corehub, S.R.L.": 8,
        "Cosmotown, Inc.": 90,
        "Cronon AG": 4,
        "Cronon GmbH": 17,
        "Crystal Coal, LLC": 1,
        "CyanDomains, Inc.": 5,
        "DENIRO MEDIA SRL": 3,
        "DNC Holdings INC": 6,
        "DNC Holdings, Inc.": 591,
        "DNSPod, Inc.": 6,
        "DOMAIN NAME NETWORK PTY LTD": 2,
        "DOMAINCONTEXT, INC.": 51,
        "DOMAINNAME FWY, INC.": 1,
        "DOMAINSHOP-RU": 121,
        "DOMENUS-RU": 13,
        "DOMENUS-SU": 1,
        "DROP.com.au Pty Ltd": 1,
        "DYNADOT, LLC": 1365,
        "Dagnabit, LLC": 1,
        "Dai Nippon Joho System Co., Ltd.": 3,
        "Danesco Trading Ltd.": 12029,
        "Dattatec Corp.": 1,
        "Deluxe Small Business Sales, Inc. d/b/a Aplus.net": 6,
        "Desert Sand Domains, LLC": 1,
        "DevilDogDomains.com, LLC": 3,
        "Diamatrix C.C.": 3,
        "Dinahosting SL": 18,
        "Dinahosting s.l.": 12,
        "Domain Directors Pty Ltd trading as Instra": 4,
        "Domain International Services Limited": 19,
        "Domain The Net Technologies Ltd": 8,
        "Domain.com, LLC": 125,
        "DomainClub.com, LLC": 6,
        "DomainContext, Inc.": 17,
        "DomainCraze LLC": 3,
        "DomainCreek LLC": 3,
        "DomainHood LLC": 3,
        "DomainLocal LLC": 3,
        "DomainParkblock.com LLC": 1,
        "DomainPeople, Inc.": 14,
        "DomainSite": 3,
        "DomainSite, Inc.": 26,
        "DomainSpot LLC": 20,
        "Domaincatcher LLC": 3,
        "Domainclub.com, LLC": 2649,
        "Domainer Names LLC": 1,
        "Domaingazelle.com LLC": 4,
        "Domaininthebasket.com LLC": 3,
        "Domainnovations, LLC": 6,
        "Domainplace LLC": 7,
        "Domainshype.com, LLC": 3,
        "Domeneshop AS dba domainnameshop.com": 3,
        "Domraider SAS": 3,
        "DotMedia Limited": 1,
        "DotNamed LLC": 3,
        "DotRoll Kft.": 46,
        "Dotname Korea Corp.": 2,
        "Dotname Korea Corp.(http://www.dotname.co.kr)": 2,
        "Dotserve Inc": 6,
        "DreamHost LLC": 12,
        "DreamHost, LLC": 131,
        "Dreamscape Networks International Pte Ltd": 45,
        "Dreamscape Networks International PteLtd": 3,
        "DropCatch.com 1005 LLC": 3,
        "DropCatch.com 1018 LLC": 3,
        "DropCatch.com 1021 LLC": 3,
        "DropCatch.com 1023 LLC": 3,
        "DropCatch.com 1034 LLC": 3,
        "DropCatch.com 1040 LLC": 3,
        "DropCatch.com 1048 LLC": 3,
        "DropCatch.com 1051 LLC": 3,
        "DropCatch.com 1076 LLC": 3,
        "DropCatch.com 1090 LLC": 3,
        "DropCatch.com 1092 LLC": 3,
        "DropCatch.com 1094 LLC": 3,
        "DropCatch.com 1095 LLC": 3,
        "DropCatch.com 1100 LLC": 2,
        "DropCatch.com 1104 LLC": 3,
        "DropCatch.com 1146 LLC": 3,
        "DropCatch.com 1147 LLC": 3,
        "DropCatch.com 1150 LLC": 1,
        "DropCatch.com 1155 LLC": 3,
        "DropCatch.com 1158 LLC": 1,
        "DropCatch.com 1159 LLC": 3,
        "DropCatch.com 1162 LLC": 3,
        "DropCatch.com 1164 LLC": 1,
        "DropCatch.com 1167 LLC": 3,
        "DropCatch.com 1178 LLC": 3,
        "DropCatch.com 1180 LLC": 3,
        "DropCatch.com 1187 LLC": 1,
        "DropCatch.com 1189 LLC": 3,
        "DropCatch.com 1194 LLC": 2,
        "DropCatch.com 1211 LLC": 3,
        "DropCatch.com 1214 LLC": 3,
        "DropCatch.com 1223 LLC": 2,
        "DropCatch.com 1234 LLC": 1,
        "DropCatch.com 1246 LLC": 3,
        "DropCatch.com 1258 LLC": 3,
        "DropCatch.com 1260 LLC": 8,
        "DropCatch.com 1266 LLC": 1,
        "DropCatch.com 1273 LLC": 6,
        "DropCatch.com 1277 LLC": 2,
        "DropCatch.com 1288 LLC": 3,
        "DropCatch.com 1302 LLC": 1,
        "DropCatch.com 1307 LLC": 3,
        "DropCatch.com 1314 LLC": 3,
        "DropCatch.com 1318 LLC": 3,
        "DropCatch.com 1323 LLC": 3,
        "DropCatch.com 1332 LLC": 6,
        "DropCatch.com 1335 LLC": 3,
        "DropCatch.com 1338 LLC": 3,
        "DropCatch.com 1356 LLC": 2,
        "DropCatch.com 1358 LLC": 3,
        "DropCatch.com 1362 LLC": 3,
        "DropCatch.com 1385 LLC": 3,
        "DropCatch.com 1391 LLC": 3,
        "DropCatch.com 1404 LLC": 2,
        "DropCatch.com 1415 LLC": 3,
        "DropCatch.com 1429 LLC": 3,
        "DropCatch.com 1444 LLC": 1,
        "DropCatch.com 1449 LLC": 3,
        "DropCatch.com 1451 LLC": 1,
        "DropCatch.com 1452 LLC": 3,
        "DropCatch.com 1463 LLC": 2,
        "DropCatch.com 1464 LLC": 3,
        "DropCatch.com 1469 LLC": 3,
        "DropCatch.com 1475 LLC": 2,
        "DropCatch.com 1477 LLC": 2,
        "DropCatch.com 1484 LLC": 5,
        "DropCatch.com 1489 LLC": 1,
        "DropCatch.com 1497 LLC": 2,
        "DropCatch.com 1506 LLC": 3,
        "DropCatch.com 1516 LLC": 6,
        "DropCatch.com 1530 LLC": 1,
        "DropCatch.com 1531 LLC": 3,
        "DropCatch.com 1543 LLC": 3,
        "DropCatch.com 1545 LLC": 2,
        "DropCatch.com 346 LLC": 3,
        "DropCatch.com 348 LLC": 3,
        "DropCatch.com 350 LLC": 3,
        "DropCatch.com 352 LLC": 3,
        "DropCatch.com 354 LLC": 3,
        "DropCatch.com 361 LLC": 2,
        "DropCatch.com 362 LLC": 3,
        "DropCatch.com 372 LLC": 2,
        "DropCatch.com 373 LLC": 6,
        "DropCatch.com 377 LLC": 3,
        "DropCatch.com 385 LLC": 3,
        "DropCatch.com 394 LLC": 3,
        "DropCatch.com 397 LLC": 1,
        "DropCatch.com 404 LLC": 3,
        "DropCatch.com 412 LLC": 1,
        "DropCatch.com 416 LLC": 3,
        "DropCatch.com 418 LLC": 6,
        "DropCatch.com 429 LLC": 3,
        "DropCatch.com 441 LLC": 3,
        "DropCatch.com 450 LLC": 3,
        "DropCatch.com 455 LLC": 3,
        "DropCatch.com 464 LLC": 2,
        "DropCatch.com 465 LLC": 2,
        "DropCatch.com 471 LLC": 5,
        "DropCatch.com 479 LLC": 3,
        "DropCatch.com 489 LLC": 1,
        "DropCatch.com 496 LLC": 3,
        "DropCatch.com 501 LLC": 3,
        "DropCatch.com 508 LLC": 3,
        "DropCatch.com 509 LLC": 3,
        "DropCatch.com 512 LLC": 2,
        "DropCatch.com 521 LLC": 3,
        "DropCatch.com 523 LLC": 3,
        "DropCatch.com 526 LLC": 3,
        "DropCatch.com 529 LLC": 4,
        "DropCatch.com 534 LLC": 1,
        "DropCatch.com 540 LLC": 1,
        "DropCatch.com 542 LLC": 3,
        "DropCatch.com 546 LLC": 3,
        "DropCatch.com 547 LLC": 3,
        "DropCatch.com 548 LLC": 3,
        "DropCatch.com 553 LLC": 1,
        "DropCatch.com 562 LLC": 1,
        "DropCatch.com 564 LLC": 1,
        "DropCatch.com 591 LLC": 3,
        "DropCatch.com 593 LLC": 1,
        "DropCatch.com 594 LLC": 1,
        "DropCatch.com 601 LLC": 3,
        "DropCatch.com 606 LLC": 3,
        "DropCatch.com 609 LLC": 6,
        "DropCatch.com 614 LLC": 3,
        "DropCatch.com 624 LLC": 3,
        "DropCatch.com 625 LLC": 3,
        "DropCatch.com 626 LLC": 8,
        "DropCatch.com 633 LLC": 3,
        "DropCatch.com 666 LLC": 3,
        "DropCatch.com 668 LLC": 2,
        "DropCatch.com 670 LLC": 3,
        "DropCatch.com 673 LLC": 2,
        "DropCatch.com 688 LLC": 1,
        "DropCatch.com 691 LLC": 1,
        "DropCatch.com 696 LLC": 3,
        "DropCatch.com 699 LLC": 3,
        "DropCatch.com 702 LLC": 3,
        "DropCatch.com 707 LLC": 6,
        "DropCatch.com 709 LLC": 2,
        "DropCatch.com 711 LLC": 3,
        "DropCatch.com 714 LLC": 1,
        "DropCatch.com 715 LLC": 3,
        "DropCatch.com 723 LLC": 2,
        "DropCatch.com 726 LLC": 6,
        "DropCatch.com 728 LLC": 3,
        "DropCatch.com 733 LLC": 1,
        "DropCatch.com 735 LLC": 3,
        "DropCatch.com 752 LLC": 3,
        "DropCatch.com 756 LLC": 3,
        "DropCatch.com 758 LLC": 4,
        "DropCatch.com 760 LLC": 3,
        "DropCatch.com 761 LLC": 2,
        "DropCatch.com 773 LLC": 6,
        "DropCatch.com 782 LLC": 2,
        "DropCatch.com 793 LLC": 3,
        "DropCatch.com 794 LLC": 4,
        "DropCatch.com 798 LLC": 1,
        "DropCatch.com 802 LLC": 3,
        "DropCatch.com 811 LLC": 1,
        "DropCatch.com 816 LLC": 3,
        "DropCatch.com 819 LLC": 6,
        "DropCatch.com 822 LLC": 3,
        "DropCatch.com 830 LLC": 3,
        "DropCatch.com 831 LLC": 3,
        "DropCatch.com 832 LLC": 3,
        "DropCatch.com 833 LLC": 3,
        "DropCatch.com 838 LLC": 3,
        "DropCatch.com 841 LLC": 3,
        "DropCatch.com 852 LLC": 2,
        "DropCatch.com 854 LLC": 3,
        "DropCatch.com 857 LLC": 3,
        "DropCatch.com 861 LLC": 1,
        "DropCatch.com 862 LLC": 3,
        "DropCatch.com 867 LLC": 3,
        "DropCatch.com 874 LLC": 1,
        "DropCatch.com 881 LLC": 3,
        "DropCatch.com 892 LLC": 3,
        "DropCatch.com 900 LLC": 2,
        "DropCatch.com 903 LLC": 1,
        "DropCatch.com 909 LLC": 6,
        "DropCatch.com 914 LLC": 2,
        "DropCatch.com 920 LLC": 2,
        "DropCatch.com 927 LLC": 3,
        "DropCatch.com 929 LLC": 3,
        "DropCatch.com 934 LLC": 3,
        "DropCatch.com 939 LLC": 2,
        "DropCatch.com 956 LLC": 3,
        "DropCatch.com 961 LLC": 3,
        "DropCatch.com 978 LLC": 3,
        "DropCatch.com 992 LLC": 4,
        "DropCatch.com 997 LLC": 3,
        "DropFall.com, LLC": 4,
        "Dropcatch Auction LLC": 1,
        "Dynadot": 2,
        "Dynadot LLC": 556,
        "Dynadot LLC.": 1,
        "Dynadot, LLC": 311,
        "Dynadot0 LLC": 2,
        "Dynadot10 LLC": 6,
        "Dynadot11 LLC": 1,
        "Dynadot12 LLC": 4,
        "Dynadot13 LLC": 10,
        "Dynadot14 LLC": 1,
        "Dynadot15 LLC": 4,
        "Dynadot16 LLC": 8,
        "Dynadot17 LLC": 9,
        "Dynadot3 LLC": 21,
        "Dynadot4 LLC": 5,
        "Dynadot5 LLC": 4,
        "Dynadot6 LLC": 7,
        "Dynadot7 LLC": 16,
        "Dynadot8 LLC": 5,
        "Dynadot9 LLC": 10,
        "ECOMMERCE SARL": 3,
        "EPAG DOMAINSERVICES GmbH": 3,
        "EPAG Domainservices GmbH": 16,
        "ERANET INTERNATIONAL LIMITED": 6,
        "EURODNS S.A.": 17,
        "EUTurbo.com LLC": 5,
        "EXTREME SOLUTIONS SRL": 3,
        "Edomains LLC": 5,
        "Enartia Single Member S.A.": 5,
        "Endurance Digital Domain Technology LLP": 41,
        "Enom, Inc": 2,
        "Entorno Digital, S.A.": 3,
        "Entrust Domains, LLC": 1,
        "Epik Inc.": 101,
        "Epik LLC": 6,
        "Epik, Inc.": 2,
        "Eranet International Limited": 30,
        "EuroDNS": 3,
        "EuroDNS S.A.": 518,
        "EuroDNS SA": 34,
        "FBS Inc.": 12,
        "FE-RU": 3,
        "FLAPPY DOMAIN, INC.": 6,
        "FLEXBE-RU": 3,
        "Fast Domain Inc.": 1,
        "FastDomain Inc.": 68,
        "FindYouAName.com LLC": 3,
        "Fluccs - The Australian Cloud Pty Ltd": 3,
        "Free Dive Domains, LLC": 3,
        "Freshbreweddomains.com LLC": 6,
        "GANDI": 22,
        "GANDI SAS": 1,
        "GKG.Net, Inc.": 9,
        "GMB Computers SRL": 3,
        "GMO": 28,
        "GMO Internet, Inc.": 14,
        "GMO Internet, Inc. d/b/a Onamae.com": 611,
        "GRAN-0063CZ": 3,
        "Gabia, Inc.": 3,
        "Gabia, Inc.(http://www.gabia.co.kr)": 3,
        "Gandi SAS": 214,
        "GlamDomains LLC": 3,
        "Global Domain Name Trading Center Ltd": 3,
        "Global Domains International, Inc.": 3,
        "Global Domains International, Inc. DBA DomainCostClub.com": 104,
        "Gname 001 Inc": 3,
        "Gname 003 Inc": 6,
        "Gname 004 Inc": 6,
        "Gname 005 Inc": 3,
        "Gname 006 Inc": 3,
        "Gname 007 Inc": 6,
        "Gname 008 Inc": 4,
        "Gname 011 Inc": 3,
        "Gname 018 Inc": 3,
        "Gname 019 Inc": 3,
        "Gname 021 Inc": 3,
        "Gname 024 Inc": 1,
        "Gname 028 Inc": 6,
        "Gname 030 Inc": 3,
        "Gname 043 Inc": 5,
        "Gname 044 Inc": 2,
        "Gname 045 Inc": 6,
        "Gname 046 Inc": 3,
        "Gname 047 Inc": 2,
        "Gname 048 Inc": 3,
        "Gname 049 Inc": 3,
        "Gname.com Pte. Ltd.": 224,
        "Go Australia Domains Inc": 12,
        "Go Australia Domains, LLC": 6,
        "Go Canada Domains Inc": 3,
        "Go Canada Domains, LLC": 11,
        "Go China Domains Inc": 6,
        "Go China Domains, LLC": 8,
        "Go Daddy Domains Canada, Inc": 7,
        "Go Daddy, LLC": 572,
        "Go France Domains, LLC": 6,
        "Go Get Canada Domain Registrar Ltd.": 6,
        "Go Montenegro Domains, LLC": 18,
        "GoDaddy": 3,
        "GoDaddy Corporate Domains, LLC": 23,
        "GoDaddy Online Services Cayman Islands Ltd.": 254,
        "GoDaddy Online Services Ltd.": 20,
        "GoDaddy.com": 18,
        "GoDaddy.com LLC": 12,
        "GoDaddy.com LLC trading as GoDaddy.com": 9,
        "GoDaddy.com, LLC": 7606,
        "GoDaddy.com, LLC ( https://nic.at/registrar/693 )": 9,
        "GoServeYourDomain.com LLC": 3,
        "Google Inc": 3,
        "Google Inc.": 19,
        "Google LLC": 223,
        "Google LLC.": 3,
        "Gorni Interactive Ltd": 6,
        "Gransy s.r.o.": 23,
        "Gransy, s.r.o.": 242,
        "Gransy, s.r.o. d/b/a subreg.cz": 7,
        "GreenZoneDomains, LLC": 1,
        "GrepApps Technology Inc.": 2,
        "Grupo Loading Systems S.L.": 3,
        "Guangzhou Domains, Inc.": 3,
        "HOSTEUR": 3,
        "HOSTEUR SARL": 3,
        "HTTP.NET INTERNET GMBH": 9,
        "HazelDomains, Inc.": 3,
        "Heavydomains.net LLC": 5,
        "Hello Internet Corp": 3,
        "Hetzner Online GmbH": 18,
        "Hong Kong Juming Network Technology Co., Ltd.": 19,
        "Hongkong Domain Name Information Management Co., Limited": 7,
        "Hongkong Kouming International Limited": 2,
        "Hosting Concepts B.V.": 3,
        "Hosting Concepts B.V. d/b/a Openprovider": 28,
        "Hosting Concepts B.V. d/b/a Openprovider Registrar": 5,
        "Hosting Concepts B.V. d/b/a Registrar.eu": 457,
        "Hosting Ukraine": 3,
        "Hosting Ukraine LLC": 4,
        "Hosting Ukraine LLC.": 3,
        "Hostinger, UAB": 260,
        "Humbly LLC": 6,
        "ICI - Registrar": 8,
        "IHS Telekom, Inc.": 3,
        "INTERNET INVEST, LTD. DBA IMENA.UA": 31,
        "INWX": 5,
        "INWX GmbH": 157,
        "INWX GmbH ( https://nic.at/registrar/453 )": 14,
        "IONOS SE": 161,
        "IONOS SE ( https://nic.at/registrar/22 )": 3,
        "ITCONCEPT SRL": 1,
        "In2net Network Inc.": 3,
        "Indukon": 3,
        "Infomaniak Network SA": 12,
        "InsaneNames LLC": 3,
        "Instra Corporation (www.instra.com)": 6,
        "Instra Corporation Pty Ltd": 12,
        "Instra Corporation Pty Ltd.": 89,
        "InterNetX GmbH": 9,
        "InterNetX GmbH ( https://nic.at/registrar/80 )": 6,
        "InterNetworX Ltd. & Co. KG": 3,
        "InterSpace Ltd": 4,
        "Interdominios, Inc.": 3,
        "Internet Domain Service BS Corp": 1333,
        "Internet Domain Service BS Corp.": 3,
        "Isimtescil Bilisim A.S.": 30,
        "JIANGSU BANGNING SCIENCE & TECHNOLOGY CO. LTD": 3,
        "Jagat Informasi Solusi (int)": 3,
        "Japan Registry Services Co., Ltd.": 54,
        "Jiangsu Bangning Science & technology Co. Ltd.": 3,
        "KEY-SYSTEMS GmbH": 3,
        "KIFCORP": 6,
        "Kagoya Japan Inc.": 21,
        "Kauno technologijos universitetas": 2,
        "Key Systems GmbH": 3,
        "Key Systems LLC": 9,
        "Key-Systems GmbH": 954,
        "Key-Systems GmbH ( https://nic.at/registrar/404 )": 3,
        "Key-Systems Gmbh": 6,
        "Key-Systems LLC": 44,
        "Key-Systems, LLC": 12,
        "Knock Knock WHOIS There, LLC": 3,
        "LIVE-0016": 3,
        "Launchpad.com Inc.": 145,
        "Layup Domains LLC": 2,
        "Leatherneckdomains.com, LLC": 3,
        "Ledl.net GmbH": 11,
        "Ledl.net GmbH ( https://nic.at/registrar/407 )": 3,
        "Lexregistration Limited": 3,
        "Ligne Web Services SARL dba LWS": 95,
        "LiquidNet Ltd.": 21,
        "LiveDNS Ltd": 43,
        "Loopia AB": 21,
        "Loopia Group AB": 3,
        "LoopiaGroup2": 1,
        "MAFF Inc.": 200,
        "MAT BAO CORPORATION": 68,
        "MAXNAME-RU": 6,
        "MULT-0077": 3,
        "Major League Domains, LLC": 3,
        "Marcaria.com International": 3,
        "Marcaria.com International Inc.": 3,
        "Marcaria.com International, Inc.": 20,
        "MarkMonitor Inc.": 35,
        "Mat Bao Corporation": 3,
        "Mesh Digital Limited": 81,
        "Mesh Digital Ltd": 6,
        "Metaregistrar BV": 10,
        "Metaregistrar BV Applications": 3,
        "Mijn InternetOplossing B.V.": 12,
        "Misk.com, Inc.": 2,
        "Moniker Online Services LLC": 1184,
        "Moniker Online Services, LLC": 3,
        "NAMEBAY": 3,
        "NAMECHEAP": 133,
        "NAMESHIELD": 3,
        "NET-CHINESE": 3,
        "NETHOUSE-RU": 7,
        "NETIM": 18,
        "NETIM SARL": 3,
        "NETIM sarl": 28,
        "NEUBOX Internet SA de CV": 3,
        "NIC CD Migration": 1,
        "NIC Chile": 35,
        "NIC-VE": 3,
        "NICENIC INTERNATIONAL GROUP CO., LIMITED": 32,
        "Name Connection Area LLC": 3,
        "Name SRS AB": 12,
        "Name.com Inc. ( https://nic.at/registrar/620 )": 3,
        "Name.com LLC": 20,
        "Name.com, Inc": 99,
        "Name.com, Inc.": 1784,
        "Name106, Inc.": 1,
        "NameCheap": 3,
        "NameCheap, Inc.": 14148,
        "NamePal.com #8015, LLC": 3,
        "NamePal.com #8024, LLC": 5,
        "NameSector LLC": 3,
        "NameSilo": 10,
        "NameSilo, LLC": 11247,
        "NameSilo,LLC": 989,
        "Namebay SAM": 8,
        "Namecatch Zone LLC": 3,
        "Namecheap": 1418,
        "Namecheap Inc.": 135,
        "Namecheap, Inc.": 49,
        "Namecroc.com LLC": 1,
        "Nameling.com LLC": 1,
        "Names On The Drop LLC": 7,
        "NamesAlaCarte.com LLC": 3,
        "Namescout Ltd": 6,
        "Namesilo, LLC": 330,
        "Net-Chinese Co., Ltd.": 7,
        "NetArt Registrar Sp. z o.o.": 3,
        "NetEarth One Inc. d/b/a NetEarth": 78,
        "NetEarth One Inc. dba NetEarth": 3,
        "NetTuner Corp. dba Webmasters.com": 79,
        "Netowl, Inc.": 32,
        "Netowl,Inc.": 3,
        "Netregistry Pty Ltd": 4,
        "Nettuner Corp. dba Webmasters.com": 5,
        "Network Solutions, LLC": 370,
        "New Order Domains, LLC": 1,
        "Nhan Hoa Software Company Ltd.": 3,
        "Nics Telekomunikasyon A.S.": 6,
        "Nics Telekomunikasyon Ticaret Ltd. Sti.": 2,
        "Nominalia Internet S.L.": 15,
        "Noteworthydomains, LLC": 3,
        "NuNames.NU": 3,
        "ODERLAND": 7,
        "ONE 2 NET": 18,
        "OPENPROV-RU": 10,
        "OVH": 161,
        "OVH SAS": 2,
        "OVH sas": 481,
        "OldWorldAliases.com LLC": 6,
        "Omnis Network, LLC": 15,
        "One.com": 12,
        "One.com A/S": 7,
        "Online SAS": 35,
        "OnlineNIC Inc.": 6,
        "OnlineNIC, Inc.": 39,
        "OpenTLD B.V.": 13,
        "Openprovider": 14,
        "OwnRegistrar, Inc.": 25,
        "P.A. Viet Nam Company Limited": 1,
        "PCHOME": 3,
        "PDR Ltd": 78,
        "PDR Ltd.": 43,
        "PDR Ltd. d/b/a PublicDomainRegistry.com": 2881,
        "PHPNET FRANCE SARL": 1,
        "PHPNET France DBA Nuxit": 6,
        "PLANETHOSTER": 3,
        "PSI-USA, Inc. dba Domain Robot": 223,
        "PT Registrasi Nama Domain": 3,
        "Paragon Internet Group Ltd t/a Paragon Names": 7,
        "Park Avenue Capital, LLC": 3,
        "Peter Vratny - proserver1.at ( https://nic.at/registrar/327 )": 3,
        "Planeetta Internet Oy": 4,
        "PlanetHoster Inc.": 9,
        "Porkbun": 269,
        "Porkbun LLC": 1457,
        "Porkbun, LLC": 245,
        "Protocol Internet Technology Limited T/A Hosting Ireland": 3,
        "PublicDomainRegistry.com Inc": 2,
        "R01-RU": 205,
        "R01-SU": 9,
        "RD-RU": 6,
        "REG-1API": 9,
        "REG-361069": 12,
        "REG-ACTIVE24": 9,
        "REG-GRANSY": 40,
        "REG-INTERNET-CZ": 24,
        "REG-KEYSYSTEMS": 11,
        "REG-OVH": 6,
        "REG-TELE3": 11,
        "REG-WEBGLOBE": 3,
        "REG-WEDOS": 33,
        "REGISTRAR OF DOMAIN NAMES REG.RU LLC": 113,
        "REGRU-RU": 515,
        "REGRU-SU": 21,
        "REGTIME-RU": 60,
        "REGTIME-SU": 10,
        "RT-RU": 1,
        "RU-CENTER-RU": 93,
        "RUCENTER-SU": 3,
        "Realtime Register B.V.": 209,
        "Rebel.ca Corp.": 3,
        "Regional Network Information Center, JSC dba RU-CENTER": 44,
        "Register SPA": 86,
        "Register.ca Inc.": 3,
        "Register.com, Inc.": 65,
        "Registrar NIC .DO (midominio.do)": 3,
        "Registrar R01 LLC": 2,
        "Registrar of Domain Names REG.RU LLC": 37,
        "Registrar of Domain Names REG.RU, LLC": 99,
        "Registrar of domain names REG.RU": 3,
        "Registrar.eu": 14,
        "Registrar.eu ( https://nic.at/registrar/648 )": 3,
        "RegistryGate GmbH": 31,
        "RegistryGate GmbH ( https://nic.at/registrar/228 )": 2,
        "Regtime Ltd": 3,
        "Regtime Ltd.": 57,
        "ResellerCamp": 1,
        "Rymdweb AB": 3,
        "SALENAMES-RU": 47,
        "SAS Ligne Web Services - LWS": 3,
        "SCALEWAY": 2,
        "SCALEWAY (ONLINE SAS)": 6,
        "SNAPNAMES 10, LLC": 3,
        "SNAPNAMES 12, LLC": 3,
        "SNAPNAMES 14, LLC": 3,
        "SNAPNAMES 15, LLC": 3,
        "SNAPNAMES 24, LLC": 3,
        "SNAPNAMES 25, LLC": 3,
        "SNAPNAMES 67, LLC": 3,
        "SNAPNAMES 69, LLC": 3,
        "SNAPNAMES 86, LLC": 3,
        "SNAPNAMES 96, LLC": 3,
        "SOLUCIONES CORPORATIVAS IP": 3,
        "SOS WEB": 3,
        "SW Hosting & Communications Technologies SL dba Serveisweb": 3,
        "SYNERGY WHOLESALE ACCREDITATIONS PTY LTD": 12,
        "SafeNames Ltd.": 181,
        "Safenames Ltd": 21,
        "Sammamishdomains.com LLC": 3,
        "Sarek Oy": 37,
        "Sav.com LLC": 399,
        "Sav.com, LLC": 591,
        "Sav.com, LLC - 1": 3,
        "Sav.com, LLC - 14": 6,
        "Sav.com, LLC - 15": 3,
        "Sav.com, LLC - 16": 3,
        "Sav.com, LLC - 17": 3,
        "Sav.com, LLC - 30": 2,
        "Sav.com, LLC - 34": 3,
        "Sav.com, LLC - 41": 4,
        "Sav.com, LLC- 2": 6,
        "Sav.com, LLC- 7": 3,
        "Sav.com, LLC- 9": 2,
        "Sea Wasp, LLC": 665,
        "SearchNResQ, LLC": 3,
        "Serbia Broadband - Srpske kablovske mreže": 3,
        "Server Plan Srl": 2,
        "Shanghai Meicheng Technology Information Development Co., Ltd.": 12,
        "Shinjiru Technology Sdn Bhd": 41,
        "Simply.com": 3,
        "Soaring Eagle Domains, LLC": 6,
        "Soluciones Corporativas IP SLU": 6,
        "Soluciones Corporativas IP, S.L.U.": 6,
        "Soluciones Corporativas IP, SL": 233,
        "Soluciones Corporativas IP, SLU": 2,
        "SpeedPartner GmbH ( https://nic.at/registrar/497 )": 8,
        "Squarespace Domains LLC": 6,
        "Sssasss, LLC": 1,
        "Stork R, informacijske storitve, d.o.o.": 3,
        "Swordfish Domains LLC": 6,
        "Synergy Wholesale Pty Ltd": 8,
        "TES Euro Media SRL": 3,
        "THCServers SRL": 24,
        "TIMEWEB-RU": 7,
        "TLD Registrar Solutions Ltd": 122,
        "TLD Registrar Solutions Ltd.": 264,
        "TLDS L.L.C. d/b/a SRSPlus": 88,
        "Tecnocratica Centro de Datos, S.L.": 6,
        "TeliaSonera": 1,
        "Terrific.com.au Pty Ltd": 3,
        "The Domains LLC": 3,
        "The Registrar Company B.V.": 7,
        "Total Web Solutions Limited trading as TotalRegistrations": 3,
        "Travel Domains, LLC": 3,
        "Tucows": 1,
        "Tucows Domains Inc": 3,
        "Tucows Domains Inc.": 1267,
        "Tucows Inc.": 3,
        "Tucows.com Co": 41,
        "Tucows.com Co.": 28,
        "Turbonames LLC": 4,
        "Turkticaret.net Yazilim Hizmetleri Sanayi ve Ticaret A.S.": 3,
        "Turkticaret.net Yazılım Hizmetleri Sanayi ve Ticaret A.Ş.": 3,
        "TurnCommerce, Inc. DBA NameBright.com": 52,
        "UK-2 Limited": 6,
        "URL Solutions Inc.": 178,
        "URL Solutions, Inc.": 1149,
        "Uniregistrar Corp": 38,
        "United-Domains AG": 26,
        "Variomedia AG": 6,
        "Vautron Rechenzentrum AG": 83,
        "Vautron Rechenzentrum AG ( https://nic.at/registrar/610 )": 3,
        "Virtualia LLC": 6,
        "WEBG-0001": 3,
        "WEBNAMES-RU": 6,
        "WEBS-0001": 17,
        "WEDOS Internet, a.s.": 3,
        "Web Address Registration Pty Ltd": 16,
        "Web Commerce Communications Limited dba WebNic.cc": 65,
        "Web Commerce Communications Ltd": 3,
        "Web Widgets Ltd": 1,
        "Web Widgets Ltd t/a Website World": 1,
        "Webair Internet Development, Inc.": 18,
        "Webnames.ca Inc.": 3,
        "West263 International Limited": 12,
        "Wide Right Domains LLC": 1,
        "Wild West Domains, Inc.": 9,
        "Wild West Domains, LLC": 370,
        "Wix.com Ltd.": 54,
        "World4You Internet Services GmbH ( https://nic.at/registrar/61 )": 6,
        "WorthyDomains LLC": 2,
        "Xiamen ChinaSource Internet Service Co., Ltd": 3,
        "Xin Net Technology Corporation": 14,
        "ZHENGZHOU CENTURY CONNECT ELECTRONIC TECHNOLOGY DEVELOPMENT CO., LTD": 6,
        "ZOZN-0001": 3,
        "Zhuimi Inc": 4,
        "Zone Media LLC": 3,
        "Zoner Oy": 3,
        "ZoomRegistrar LLC": 3,
        "co.imena": 3,
        "dogado GmbH ( https://nic.at/registrar/622 )": 2,
        "domainfactory GmbH ( https://nic.at/registrar/202 )": 3,
        "domene.si": 3,
        "eDomains LLC": 3,
        "eNOM, Inc": 3,
        "eName Technology Co., Ltd.": 2,
        "eNom, Inc.": 33,
        "eNom, LLC": 908,
        "easyDNS Technologies Inc.": 9,
        "friendlynet meyer & strigl OG ( https://nic.at/registrar/304 )": 3,
        "globalar (GlobalAR LLC)": 1,
        "http.net Internet GmbH": 3,
        "humbly, LLC ccTLD": 2,
        "mCloud doo": 3,
        "nicar": 112,
        "total": 86314,
        "ua.drs": 3,
        "ua.hvosting": 1,
        "ua.imena": 19,
        "ua.nic": 2,
        "ua.sitevalley": 1,
        "ua.thehost": 6,
        "ua.ukraine": 27,
        "united-domains AG": 20,
        "west263 International Limited": 3,
        "www.NameSRS.com": 7,
        "İsimtescil Bilişim A.Ş.": 3,
        "广州云讯信息科技有限公司": 3,
        "成都西维数码科技有限公司": 3,
        "江苏邦宁科技有限公司": 3,
        "河南微创网络科技有限公司（中网互联）": 3,
        "郑州世纪创联电子科技开发有限公司": 1
    },
    "percentage": {
        "! #1 Host Japan, LLC": 0.016219848460272957,
        "..........NETMASTER SARL": 0.0034756818129156337,
        "1 Api GmbH": 0.00926848483444169,
        "1&1 IONOS SE": 0.006951363625831267,
        "1&1 Internet SE": 0.0023171212086104225,
        "101DOMAIN-RU": 0.0034756818129156337,
        "101Domain, Inc.": 0.006951363625831267,
        "101domain GRS Limited": 0.1239659846606576,
        "101domain GRS Ltd": 0.0034756818129156337,
        "101domain GRS Ltd.": 0.012744166647357323,
        "10dencehispahard, S.L.": 0.03939106054637718,
        "123-Reg Limited": 0.14597863614245662,
        "17 Domain 2, Limited": 0.0034756818129156337,
        "1API": 0.0023171212086104225,
        "1API GmbH": 0.553791968857891,
        "1API GmbH ( https://nic.at/registrar/578 )": 0.0023171212086104225,
        "22net, Inc.": 0.006951363625831267,
        "AC Webconnecting N.V. DBA domain.cam": 0.02780545450332507,
        "ACTIVE-RU": 0.13902727251662533,
        "AKKY ONLINE SOLUTIONS, S.A. DE C.V.": 0.013902727251662535,
        "ALIBABA.COM SINGAPORE E-COMMERCE PRIVATE LIMITED": 0.08225780290567,
        "ARDIS-RU": 0.1552471209768983,
        "ARDIS-SU": 0.12628310586926803,
        "ASCIO TECHNOLOGIES Inc.": 0.0034756818129156337,
        "ATEX-RU": 0.030122575711935492,
        "AXELNAME-RU": 0.017378409064578167,
        "Above.com Pty Ltd.": 0.012744166647357323,
        "Acens Technologies, S.L.U.": 0.010427045438746901,
        "Active Technologies LLC": 0.0034756818129156337,
        "Adriahost": 0.0034756818129156337,
        "Advanced Internet Technologies, Inc. (AIT)": 0.01853696966888338,
        "Aerotek Bilisim Sanayi ve Ticaret AS": 0.0034756818129156337,
        "Alethia Domains, LLC": 0.011585606043052112,
        "Alibaba Cloud Computing (Beijing) Co., Ltd.": 0.025488333294714647,
        "Alibaba Cloud Computing Ltd. d/b/a HiChina (www.net.cn)": 0.024329772690409434,
        "Alibaba.com Singapore E-Commerce Private Limited": 0.013902727251662535,
        "All Domains LLC": 0.0034756818129156337,
        "Amazon Registrar, Inc.": 0.15988136339411915,
        "Arsys Internet, S.L. dba NICLINE.COM": 0.024329772690409434,
        "Ascio Technologies Inc. ( https://nic.at/registrar/27 )": 0.0023171212086104225,
        "Ascio Technologies Inc. - DK Branch": 0.0034756818129156337,
        "Ascio Technologies Inc. Danmark - filial af Ascio Technologies Inc. USA": 0.0034756818129156337,
        "Ascio Technologies, Inc. Danmark - Filial af Ascio technologies, Inc. USA": 0.1031118937831638,
        "Atak Domain Bilgi Teknolojileri A.S.": 0.020854090877493802,
        "AtlanticDomains, LLC": 0.0034756818129156337,
        "Automattic Inc.": 0.05329378779803971,
        "BEGET-RU": 0.04981810598512408,
        "BRANDON GRAY INTERNET SERVICES INC. (dba NameJuice.com)": 0.0034756818129156337,
        "Beget LLC": 0.024329772690409434,
        "BigRock Solutions Ltd": 0.030122575711935492,
        "BigRock Solutions Ltd.": 0.0011585606043052112,
        "Bizcn.com, Inc.": 0.0034756818129156337,
        "Blacknight Solutions": 0.0034756818129156337,
        "BlockHost LLC": 0.0034756818129156337,
        "Blue Razor Domains, LLC": 0.011585606043052112,
        "CCI REG S.A.": 0.0034756818129156337,
        "CENTRALNIC CANADA INC": 0.10427045438746901,
        "CLICK PANDA SAS": 0.0034756818129156337,
        "CNOBIN INFORMATION TECHNOLOGY LIMITED": 0.0023171212086104225,
        "CPS-Datensysteme GmbH": 0.026646893899019856,
        "CSC Corporate Domains, Inc.": 0.045183863567903236,
        "CSL Computer Service Langenbach GmbH": 0.0023171212086104225,
        "CSL Computer Service Langenbach GmbH d/b/a joker.com": 0.15988136339411915,
        "CSL Computer Service Langenbach GmbH d/b/a joker.com a German GmbH": 0.0034756818129156337,
        "CV Jogjacamp": 0.0023171212086104225,
        "CV. JOGJACAMP": 0.0011585606043052112,
        "Cam Connecting SARL": 0.0034756818129156337,
        "CanHost Inc.": 0.0034756818129156337,
        "Center of Ukrainian Internet Names (UKRNAMES)": 0.004634242417220845,
        "CentralNic Ltd": 0.0034756818129156337,
        "Cheaper Domains Pty Ltd": 0.0011585606043052112,
        "Chengdu West Dimension Digital Technology Co., Ltd.": 0.0011585606043052112,
        "ChocolateChipDomains, LLC": 0.0011585606043052112,
        "Circle of Domains LLC": 0.0034756818129156337,
        "Click Registrar, LLC dba publicdomainregistry.com": 0.016219848460272957,
        "Cloud Yuqu LLC": 0.0034756818129156337,
        "CloudFlare, Inc.": 1.0009963621197024,
        "Cloudflare, Inc": 0.04402530296359802,
        "Cloudflare, Inc.": 0.02896401510763028,
        "CommuniGal Communication Ltd.": 0.020854090877493802,
        "CommuniGal Communications Ltd.": 0.006951363625831267,
        "Communigal Communication Ltd": 0.013902727251662535,
        "Communigal Communications Ltd.": 0.004634242417220845,
        "Compuglobalhypermega.com LLC": 0.0034756818129156337,
        "Corehub, S.R.L.": 0.00926848483444169,
        "Cosmotown, Inc.": 0.10427045438746901,
        "Cronon AG": 0.004634242417220845,
        "Cronon GmbH": 0.01969553027318859,
        "Crystal Coal, LLC": 0.0011585606043052112,
        "CyanDomains, Inc.": 0.005792803021526056,
        "DENIRO MEDIA SRL": 0.0034756818129156337,
        "DNC Holdings INC": 0.006951363625831267,
        "DNC Holdings, Inc.": 0.6847093171443798,
        "DNSPod, Inc.": 0.006951363625831267,
        "DOMAIN NAME NETWORK PTY LTD": 0.0023171212086104225,
        "DOMAINCONTEXT, INC.": 0.05908659081956577,
        "DOMAINNAME FWY, INC.": 0.0011585606043052112,
        "DOMAINSHOP-RU": 0.14018583312093055,
        "DOMENUS-RU": 0.015061287855967746,
        "DOMENUS-SU": 0.0011585606043052112,
        "DROP.com.au Pty Ltd": 0.0011585606043052112,
        "DYNADOT, LLC": 1.5814352248766133,
        "Dagnabit, LLC": 0.0011585606043052112,
        "Dai Nippon Joho System Co., Ltd.": 0.0034756818129156337,
        "Danesco Trading Ltd.": 13.936325509187386,
        "Dattatec Corp.": 0.0011585606043052112,
        "Deluxe Small Business Sales, Inc. d/b/a Aplus.net": 0.006951363625831267,
        "Desert Sand Domains, LLC": 0.0011585606043052112,
        "DevilDogDomains.com, LLC": 0.0034756818129156337,
        "Diamatrix C.C.": 0.0034756818129156337,
        "Dinahosting SL": 0.020854090877493802,
        "Dinahosting s.l.": 0.013902727251662535,
        "Domain Directors Pty Ltd trading as Instra": 0.004634242417220845,
        "Domain International Services Limited": 0.02201265148179901,
        "Domain The Net Technologies Ltd": 0.00926848483444169,
        "Domain.com, LLC": 0.1448200755381514,
        "DomainClub.com, LLC": 0.006951363625831267,
        "DomainContext, Inc.": 0.01969553027318859,
        "DomainCraze LLC": 0.0034756818129156337,
        "DomainCreek LLC": 0.0034756818129156337,
        "DomainHood LLC": 0.0034756818129156337,
        "DomainLocal LLC": 0.0034756818129156337,
        "DomainParkblock.com LLC": 0.0011585606043052112,
        "DomainPeople, Inc.": 0.016219848460272957,
        "DomainSite": 0.0034756818129156337,
        "DomainSite, Inc.": 0.030122575711935492,
        "DomainSpot LLC": 0.023171212086104225,
        "Domaincatcher LLC": 0.0034756818129156337,
        "Domainclub.com, LLC": 3.0690270408045044,
        "Domainer Names LLC": 0.0011585606043052112,
        "Domaingazelle.com LLC": 0.004634242417220845,
        "Domaininthebasket.com LLC": 0.0034756818129156337,
        "Domainnovations, LLC": 0.006951363625831267,
        "Domainplace LLC": 0.008109924230136479,
        "Domainshype.com, LLC": 0.0034756818129156337,
        "Domeneshop AS dba domainnameshop.com": 0.0034756818129156337,
        "Domraider SAS": 0.0034756818129156337,
        "DotMedia Limited": 0.0011585606043052112,
        "DotNamed LLC": 0.0034756818129156337,
        "DotRoll Kft.": 0.05329378779803971,
        "Dotname Korea Corp.": 0.0023171212086104225,
        "Dotname Korea Corp.(http://www.dotname.co.kr)": 0.0023171212086104225,
        "Dotserve Inc": 0.006951363625831267,
        "DreamHost LLC": 0.013902727251662535,
        "DreamHost, LLC": 0.15177143916398267,
        "Dreamscape Networks International Pte Ltd": 0.05213522719373451,
        "Dreamscape Networks International PteLtd": 0.0034756818129156337,
        "DropCatch.com 1005 LLC": 0.0034756818129156337,
        "DropCatch.com 1018 LLC": 0.0034756818129156337,
        "DropCatch.com 1021 LLC": 0.0034756818129156337,
        "DropCatch.com 1023 LLC": 0.0034756818129156337,
        "DropCatch.com 1034 LLC": 0.0034756818129156337,
        "DropCatch.com 1040 LLC": 0.0034756818129156337,
        "DropCatch.com 1048 LLC": 0.0034756818129156337,
        "DropCatch.com 1051 LLC": 0.0034756818129156337,
        "DropCatch.com 1076 LLC": 0.0034756818129156337,
        "DropCatch.com 1090 LLC": 0.0034756818129156337,
        "DropCatch.com 1092 LLC": 0.0034756818129156337,
        "DropCatch.com 1094 LLC": 0.0034756818129156337,
        "DropCatch.com 1095 LLC": 0.0034756818129156337,
        "DropCatch.com 1100 LLC": 0.0023171212086104225,
        "DropCatch.com 1104 LLC": 0.0034756818129156337,
        "DropCatch.com 1146 LLC": 0.0034756818129156337,
        "DropCatch.com 1147 LLC": 0.0034756818129156337,
        "DropCatch.com 1150 LLC": 0.0011585606043052112,
        "DropCatch.com 1155 LLC": 0.0034756818129156337,
        "DropCatch.com 1158 LLC": 0.0011585606043052112,
        "DropCatch.com 1159 LLC": 0.0034756818129156337,
        "DropCatch.com 1162 LLC": 0.0034756818129156337,
        "DropCatch.com 1164 LLC": 0.0011585606043052112,
        "DropCatch.com 1167 LLC": 0.0034756818129156337,
        "DropCatch.com 1178 LLC": 0.0034756818129156337,
        "DropCatch.com 1180 LLC": 0.0034756818129156337,
        "DropCatch.com 1187 LLC": 0.0011585606043052112,
        "DropCatch.com 1189 LLC": 0.0034756818129156337,
        "DropCatch.com 1194 LLC": 0.0023171212086104225,
        "DropCatch.com 1211 LLC": 0.0034756818129156337,
        "DropCatch.com 1214 LLC": 0.0034756818129156337,
        "DropCatch.com 1223 LLC": 0.0023171212086104225,
        "DropCatch.com 1234 LLC": 0.0011585606043052112,
        "DropCatch.com 1246 LLC": 0.0034756818129156337,
        "DropCatch.com 1258 LLC": 0.0034756818129156337,
        "DropCatch.com 1260 LLC": 0.00926848483444169,
        "DropCatch.com 1266 LLC": 0.0011585606043052112,
        "DropCatch.com 1273 LLC": 0.006951363625831267,
        "DropCatch.com 1277 LLC": 0.0023171212086104225,
        "DropCatch.com 1288 LLC": 0.0034756818129156337,
        "DropCatch.com 1302 LLC": 0.0011585606043052112,
        "DropCatch.com 1307 LLC": 0.0034756818129156337,
        "DropCatch.com 1314 LLC": 0.0034756818129156337,
        "DropCatch.com 1318 LLC": 0.0034756818129156337,
        "DropCatch.com 1323 LLC": 0.0034756818129156337,
        "DropCatch.com 1332 LLC": 0.006951363625831267,
        "DropCatch.com 1335 LLC": 0.0034756818129156337,
        "DropCatch.com 1338 LLC": 0.0034756818129156337,
        "DropCatch.com 1356 LLC": 0.0023171212086104225,
        "DropCatch.com 1358 LLC": 0.0034756818129156337,
        "DropCatch.com 1362 LLC": 0.0034756818129156337,
        "DropCatch.com 1385 LLC": 0.0034756818129156337,
        "DropCatch.com 1391 LLC": 0.0034756818129156337,
        "DropCatch.com 1404 LLC": 0.0023171212086104225,
        "DropCatch.com 1415 LLC": 0.0034756818129156337,
        "DropCatch.com 1429 LLC": 0.0034756818129156337,
        "DropCatch.com 1444 LLC": 0.0011585606043052112,
        "DropCatch.com 1449 LLC": 0.0034756818129156337,
        "DropCatch.com 1451 LLC": 0.0011585606043052112,
        "DropCatch.com 1452 LLC": 0.0034756818129156337,
        "DropCatch.com 1463 LLC": 0.0023171212086104225,
        "DropCatch.com 1464 LLC": 0.0034756818129156337,
        "DropCatch.com 1469 LLC": 0.0034756818129156337,
        "DropCatch.com 1475 LLC": 0.0023171212086104225,
        "DropCatch.com 1477 LLC": 0.0023171212086104225,
        "DropCatch.com 1484 LLC": 0.005792803021526056,
        "DropCatch.com 1489 LLC": 0.0011585606043052112,
        "DropCatch.com 1497 LLC": 0.0023171212086104225,
        "DropCatch.com 1506 LLC": 0.0034756818129156337,
        "DropCatch.com 1516 LLC": 0.006951363625831267,
        "DropCatch.com 1530 LLC": 0.0011585606043052112,
        "DropCatch.com 1531 LLC": 0.0034756818129156337,
        "DropCatch.com 1543 LLC": 0.0034756818129156337,
        "DropCatch.com 1545 LLC": 0.0023171212086104225,
        "DropCatch.com 346 LLC": 0.0034756818129156337,
        "DropCatch.com 348 LLC": 0.0034756818129156337,
        "DropCatch.com 350 LLC": 0.0034756818129156337,
        "DropCatch.com 352 LLC": 0.0034756818129156337,
        "DropCatch.com 354 LLC": 0.0034756818129156337,
        "DropCatch.com 361 LLC": 0.0023171212086104225,
        "DropCatch.com 362 LLC": 0.0034756818129156337,
        "DropCatch.com 372 LLC": 0.0023171212086104225,
        "DropCatch.com 373 LLC": 0.006951363625831267,
        "DropCatch.com 377 LLC": 0.0034756818129156337,
        "DropCatch.com 385 LLC": 0.0034756818129156337,
        "DropCatch.com 394 LLC": 0.0034756818129156337,
        "DropCatch.com 397 LLC": 0.0011585606043052112,
        "DropCatch.com 404 LLC": 0.0034756818129156337,
        "DropCatch.com 412 LLC": 0.0011585606043052112,
        "DropCatch.com 416 LLC": 0.0034756818129156337,
        "DropCatch.com 418 LLC": 0.006951363625831267,
        "DropCatch.com 429 LLC": 0.0034756818129156337,
        "DropCatch.com 441 LLC": 0.0034756818129156337,
        "DropCatch.com 450 LLC": 0.0034756818129156337,
        "DropCatch.com 455 LLC": 0.0034756818129156337,
        "DropCatch.com 464 LLC": 0.0023171212086104225,
        "DropCatch.com 465 LLC": 0.0023171212086104225,
        "DropCatch.com 471 LLC": 0.005792803021526056,
        "DropCatch.com 479 LLC": 0.0034756818129156337,
        "DropCatch.com 489 LLC": 0.0011585606043052112,
        "DropCatch.com 496 LLC": 0.0034756818129156337,
        "DropCatch.com 501 LLC": 0.0034756818129156337,
        "DropCatch.com 508 LLC": 0.0034756818129156337,
        "DropCatch.com 509 LLC": 0.0034756818129156337,
        "DropCatch.com 512 LLC": 0.0023171212086104225,
        "DropCatch.com 521 LLC": 0.0034756818129156337,
        "DropCatch.com 523 LLC": 0.0034756818129156337,
        "DropCatch.com 526 LLC": 0.0034756818129156337,
        "DropCatch.com 529 LLC": 0.004634242417220845,
        "DropCatch.com 534 LLC": 0.0011585606043052112,
        "DropCatch.com 540 LLC": 0.0011585606043052112,
        "DropCatch.com 542 LLC": 0.0034756818129156337,
        "DropCatch.com 546 LLC": 0.0034756818129156337,
        "DropCatch.com 547 LLC": 0.0034756818129156337,
        "DropCatch.com 548 LLC": 0.0034756818129156337,
        "DropCatch.com 553 LLC": 0.0011585606043052112,
        "DropCatch.com 562 LLC": 0.0011585606043052112,
        "DropCatch.com 564 LLC": 0.0011585606043052112,
        "DropCatch.com 591 LLC": 0.0034756818129156337,
        "DropCatch.com 593 LLC": 0.0011585606043052112,
        "DropCatch.com 594 LLC": 0.0011585606043052112,
        "DropCatch.com 601 LLC": 0.0034756818129156337,
        "DropCatch.com 606 LLC": 0.0034756818129156337,
        "DropCatch.com 609 LLC": 0.006951363625831267,
        "DropCatch.com 614 LLC": 0.0034756818129156337,
        "DropCatch.com 624 LLC": 0.0034756818129156337,
        "DropCatch.com 625 LLC": 0.0034756818129156337,
        "DropCatch.com 626 LLC": 0.00926848483444169,
        "DropCatch.com 633 LLC": 0.0034756818129156337,
        "DropCatch.com 666 LLC": 0.0034756818129156337,
        "DropCatch.com 668 LLC": 0.0023171212086104225,
        "DropCatch.com 670 LLC": 0.0034756818129156337,
        "DropCatch.com 673 LLC": 0.0023171212086104225,
        "DropCatch.com 688 LLC": 0.0011585606043052112,
        "DropCatch.com 691 LLC": 0.0011585606043052112,
        "DropCatch.com 696 LLC": 0.0034756818129156337,
        "DropCatch.com 699 LLC": 0.0034756818129156337,
        "DropCatch.com 702 LLC": 0.0034756818129156337,
        "DropCatch.com 707 LLC": 0.006951363625831267,
        "DropCatch.com 709 LLC": 0.0023171212086104225,
        "DropCatch.com 711 LLC": 0.0034756818129156337,
        "DropCatch.com 714 LLC": 0.0011585606043052112,
        "DropCatch.com 715 LLC": 0.0034756818129156337,
        "DropCatch.com 723 LLC": 0.0023171212086104225,
        "DropCatch.com 726 LLC": 0.006951363625831267,
        "DropCatch.com 728 LLC": 0.0034756818129156337,
        "DropCatch.com 733 LLC": 0.0011585606043052112,
        "DropCatch.com 735 LLC": 0.0034756818129156337,
        "DropCatch.com 752 LLC": 0.0034756818129156337,
        "DropCatch.com 756 LLC": 0.0034756818129156337,
        "DropCatch.com 758 LLC": 0.004634242417220845,
        "DropCatch.com 760 LLC": 0.0034756818129156337,
        "DropCatch.com 761 LLC": 0.0023171212086104225,
        "DropCatch.com 773 LLC": 0.006951363625831267,
        "DropCatch.com 782 LLC": 0.0023171212086104225,
        "DropCatch.com 793 LLC": 0.0034756818129156337,
        "DropCatch.com 794 LLC": 0.004634242417220845,
        "DropCatch.com 798 LLC": 0.0011585606043052112,
        "DropCatch.com 802 LLC": 0.0034756818129156337,
        "DropCatch.com 811 LLC": 0.0011585606043052112,
        "DropCatch.com 816 LLC": 0.0034756818129156337,
        "DropCatch.com 819 LLC": 0.006951363625831267,
        "DropCatch.com 822 LLC": 0.0034756818129156337,
        "DropCatch.com 830 LLC": 0.0034756818129156337,
        "DropCatch.com 831 LLC": 0.0034756818129156337,
        "DropCatch.com 832 LLC": 0.0034756818129156337,
        "DropCatch.com 833 LLC": 0.0034756818129156337,
        "DropCatch.com 838 LLC": 0.0034756818129156337,
        "DropCatch.com 841 LLC": 0.0034756818129156337,
        "DropCatch.com 852 LLC": 0.0023171212086104225,
        "DropCatch.com 854 LLC": 0.0034756818129156337,
        "DropCatch.com 857 LLC": 0.0034756818129156337,
        "DropCatch.com 861 LLC": 0.0011585606043052112,
        "DropCatch.com 862 LLC": 0.0034756818129156337,
        "DropCatch.com 867 LLC": 0.0034756818129156337,
        "DropCatch.com 874 LLC": 0.0011585606043052112,
        "DropCatch.com 881 LLC": 0.0034756818129156337,
        "DropCatch.com 892 LLC": 0.0034756818129156337,
        "DropCatch.com 900 LLC": 0.0023171212086104225,
        "DropCatch.com 903 LLC": 0.0011585606043052112,
        "DropCatch.com 909 LLC": 0.006951363625831267,
        "DropCatch.com 914 LLC": 0.0023171212086104225,
        "DropCatch.com 920 LLC": 0.0023171212086104225,
        "DropCatch.com 927 LLC": 0.0034756818129156337,
        "DropCatch.com 929 LLC": 0.0034756818129156337,
        "DropCatch.com 934 LLC": 0.0034756818129156337,
        "DropCatch.com 939 LLC": 0.0023171212086104225,
        "DropCatch.com 956 LLC": 0.0034756818129156337,
        "DropCatch.com 961 LLC": 0.0034756818129156337,
        "DropCatch.com 978 LLC": 0.0034756818129156337,
        "DropCatch.com 992 LLC": 0.004634242417220845,
        "DropCatch.com 997 LLC": 0.0034756818129156337,
        "DropFall.com, LLC": 0.004634242417220845,
        "Dropcatch Auction LLC": 0.0011585606043052112,
        "Dynadot": 0.0023171212086104225,
        "Dynadot LLC": 0.6441596959936974,
        "Dynadot LLC.": 0.0011585606043052112,
        "Dynadot, LLC": 0.3603123479389207,
        "Dynadot0 LLC": 0.0023171212086104225,
        "Dynadot10 LLC": 0.006951363625831267,
        "Dynadot11 LLC": 0.0011585606043052112,
        "Dynadot12 LLC": 0.004634242417220845,
        "Dynadot13 LLC": 0.011585606043052112,
        "Dynadot14 LLC": 0.0011585606043052112,
        "Dynadot15 LLC": 0.004634242417220845,
        "Dynadot16 LLC": 0.00926848483444169,
        "Dynadot17 LLC": 0.010427045438746901,
        "Dynadot3 LLC": 0.024329772690409434,
        "Dynadot4 LLC": 0.005792803021526056,
        "Dynadot5 LLC": 0.004634242417220845,
        "Dynadot6 LLC": 0.008109924230136479,
        "Dynadot7 LLC": 0.01853696966888338,
        "Dynadot8 LLC": 0.005792803021526056,
        "Dynadot9 LLC": 0.011585606043052112,
        "ECOMMERCE SARL": 0.0034756818129156337,
        "EPAG DOMAINSERVICES GmbH": 0.0034756818129156337,
        "EPAG Domainservices GmbH": 0.01853696966888338,
        "ERANET INTERNATIONAL LIMITED": 0.006951363625831267,
        "EURODNS S.A.": 0.01969553027318859,
        "EUTurbo.com LLC": 0.005792803021526056,
        "EXTREME SOLUTIONS SRL": 0.0034756818129156337,
        "Edomains LLC": 0.005792803021526056,
        "Enartia Single Member S.A.": 0.005792803021526056,
        "Endurance Digital Domain Technology LLP": 0.04750098477651366,
        "Enom, Inc": 0.0023171212086104225,
        "Entorno Digital, S.A.": 0.0034756818129156337,
        "Entrust Domains, LLC": 0.0011585606043052112,
        "Epik Inc.": 0.11701462103482634,
        "Epik LLC": 0.006951363625831267,
        "Epik, Inc.": 0.0023171212086104225,
        "Eranet International Limited": 0.03475681812915633,
        "EuroDNS": 0.0034756818129156337,
        "EuroDNS S.A.": 0.6001343930300994,
        "EuroDNS SA": 0.03939106054637718,
        "FBS Inc.": 0.013902727251662535,
        "FE-RU": 0.0034756818129156337,
        "FLAPPY DOMAIN, INC.": 0.006951363625831267,
        "FLEXBE-RU": 0.0034756818129156337,
        "Fast Domain Inc.": 0.0011585606043052112,
        "FastDomain Inc.": 0.07878212109275436,
        "FindYouAName.com LLC": 0.0034756818129156337,
        "Fluccs - The Australian Cloud Pty Ltd": 0.0034756818129156337,
        "Free Dive Domains, LLC": 0.0034756818129156337,
        "Freshbreweddomains.com LLC": 0.006951363625831267,
        "GANDI": 0.025488333294714647,
        "GANDI SAS": 0.0011585606043052112,
        "GKG.Net, Inc.": 0.010427045438746901,
        "GMB Computers SRL": 0.0034756818129156337,
        "GMO": 0.032439696920545914,
        "GMO Internet, Inc.": 0.016219848460272957,
        "GMO Internet, Inc. d/b/a Onamae.com": 0.7078805292304841,
        "GRAN-0063CZ": 0.0034756818129156337,
        "Gabia, Inc.": 0.0034756818129156337,
        "Gabia, Inc.(http://www.gabia.co.kr)": 0.0034756818129156337,
        "Gandi SAS": 0.2479319693213152,
        "GlamDomains LLC": 0.0034756818129156337,
        "Global Domain Name Trading Center Ltd": 0.0034756818129156337,
        "Global Domains International, Inc.": 0.0034756818129156337,
        "Global Domains International, Inc. DBA DomainCostClub.com": 0.12049030284774197,
        "Gname 001 Inc": 0.0034756818129156337,
        "Gname 003 Inc": 0.006951363625831267,
        "Gname 004 Inc": 0.006951363625831267,
        "Gname 005 Inc": 0.0034756818129156337,
        "Gname 006 Inc": 0.0034756818129156337,
        "Gname 007 Inc": 0.006951363625831267,
        "Gname 008 Inc": 0.004634242417220845,
        "Gname 011 Inc": 0.0034756818129156337,
        "Gname 018 Inc": 0.0034756818129156337,
        "Gname 019 Inc": 0.0034756818129156337,
        "Gname 021 Inc": 0.0034756818129156337,
        "Gname 024 Inc": 0.0011585606043052112,
        "Gname 028 Inc": 0.006951363625831267,
        "Gname 030 Inc": 0.0034756818129156337,
        "Gname 043 Inc": 0.005792803021526056,
        "Gname 044 Inc": 0.0023171212086104225,
        "Gname 045 Inc": 0.006951363625831267,
        "Gname 046 Inc": 0.0034756818129156337,
        "Gname 047 Inc": 0.0023171212086104225,
        "Gname 048 Inc": 0.0034756818129156337,
        "Gname 049 Inc": 0.0034756818129156337,
        "Gname.com Pte. Ltd.": 0.2595175753643673,
        "Go Australia Domains Inc": 0.013902727251662535,
        "Go Australia Domains, LLC": 0.006951363625831267,
        "Go Canada Domains Inc": 0.0034756818129156337,
        "Go Canada Domains, LLC": 0.012744166647357323,
        "Go China Domains Inc": 0.006951363625831267,
        "Go China Domains, LLC": 0.00926848483444169,
        "Go Daddy Domains Canada, Inc": 0.008109924230136479,
        "Go Daddy, LLC": 0.6626966656625808,
        "Go France Domains, LLC": 0.006951363625831267,
        "Go Get Canada Domain Registrar Ltd.": 0.006951363625831267,
        "Go Montenegro Domains, LLC": 0.020854090877493802,
        "GoDaddy": 0.0034756818129156337,
        "GoDaddy Corporate Domains, LLC": 0.026646893899019856,
        "GoDaddy Online Services Cayman Islands Ltd.": 0.29427439349352363,
        "GoDaddy Online Services Ltd.": 0.023171212086104225,
        "GoDaddy.com": 0.020854090877493802,
        "GoDaddy.com LLC": 0.013902727251662535,
        "GoDaddy.com LLC trading as GoDaddy.com": 0.010427045438746901,
        "GoDaddy.com, LLC": 8.812011956345437,
        "GoDaddy.com, LLC ( https://nic.at/registrar/693 )": 0.010427045438746901,
        "GoServeYourDomain.com LLC": 0.0034756818129156337,
        "Google Inc": 0.0034756818129156337,
        "Google Inc.": 0.02201265148179901,
        "Google LLC": 0.2583590147600621,
        "Google LLC.": 0.0034756818129156337,
        "Gorni Interactive Ltd": 0.006951363625831267,
        "Gransy s.r.o.": 0.026646893899019856,
        "Gransy, s.r.o.": 0.2803716662418611,
        "Gransy, s.r.o. d/b/a subreg.cz": 0.008109924230136479,
        "GreenZoneDomains, LLC": 0.0011585606043052112,
        "GrepApps Technology Inc.": 0.0023171212086104225,
        "Grupo Loading Systems S.L.": 0.0034756818129156337,
        "Guangzhou Domains, Inc.": 0.0034756818129156337,
        "HOSTEUR": 0.0034756818129156337,
        "HOSTEUR SARL": 0.0034756818129156337,
        "HTTP.NET INTERNET GMBH": 0.010427045438746901,
        "HazelDomains, Inc.": 0.0034756818129156337,
        "Heavydomains.net LLC": 0.005792803021526056,
        "Hello Internet Corp": 0.0034756818129156337,
        "Hetzner Online GmbH": 0.020854090877493802,
        "Hong Kong Juming Network Technology Co., Ltd.": 0.02201265148179901,
        "Hongkong Domain Name Information Management Co., Limited": 0.008109924230136479,
        "Hongkong Kouming International Limited": 0.0023171212086104225,
        "Hosting Concepts B.V.": 0.0034756818129156337,
        "Hosting Concepts B.V. d/b/a Openprovider": 0.032439696920545914,
        "Hosting Concepts B.V. d/b/a Openprovider Registrar": 0.005792803021526056,
        "Hosting Concepts B.V. d/b/a Registrar.eu": 0.5294621961674815,
        "Hosting Ukraine": 0.0034756818129156337,
        "Hosting Ukraine LLC": 0.004634242417220845,
        "Hosting Ukraine LLC.": 0.0034756818129156337,
        "Hostinger, UAB": 0.3012257571193549,
        "Humbly LLC": 0.006951363625831267,
        "ICI - Registrar": 0.00926848483444169,
        "IHS Telekom, Inc.": 0.0034756818129156337,
        "INTERNET INVEST, LTD. DBA IMENA.UA": 0.035915378733461546,
        "INWX": 0.005792803021526056,
        "INWX GmbH": 0.18189401487591816,
        "INWX GmbH ( https://nic.at/registrar/453 )": 0.016219848460272957,
        "IONOS SE": 0.18652825729313902,
        "IONOS SE ( https://nic.at/registrar/22 )": 0.0034756818129156337,
        "ITCONCEPT SRL": 0.0011585606043052112,
        "In2net Network Inc.": 0.0034756818129156337,
        "Indukon": 0.0034756818129156337,
        "Infomaniak Network SA": 0.013902727251662535,
        "InsaneNames LLC": 0.0034756818129156337,
        "Instra Corporation (www.instra.com)": 0.006951363625831267,
        "Instra Corporation Pty Ltd": 0.013902727251662535,
        "Instra Corporation Pty Ltd.": 0.1031118937831638,
        "InterNetX GmbH": 0.010427045438746901,
        "InterNetX GmbH ( https://nic.at/registrar/80 )": 0.006951363625831267,
        "InterNetworX Ltd. & Co. KG": 0.0034756818129156337,
        "InterSpace Ltd": 0.004634242417220845,
        "Interdominios, Inc.": 0.0034756818129156337,
        "Internet Domain Service BS Corp": 1.5443612855388464,
        "Internet Domain Service BS Corp.": 0.0034756818129156337,
        "Isimtescil Bilisim A.S.": 0.03475681812915633,
        "JIANGSU BANGNING SCIENCE & TECHNOLOGY CO. LTD": 0.0034756818129156337,
        "Jagat Informasi Solusi (int)": 0.0034756818129156337,
        "Japan Registry Services Co., Ltd.": 0.0625622726324814,
        "Jiangsu Bangning Science & technology Co. Ltd.": 0.0034756818129156337,
        "KEY-SYSTEMS GmbH": 0.0034756818129156337,
        "KIFCORP": 0.006951363625831267,
        "Kagoya Japan Inc.": 0.024329772690409434,
        "Kauno technologijos universitetas": 0.0023171212086104225,
        "Key Systems GmbH": 0.0034756818129156337,
        "Key Systems LLC": 0.010427045438746901,
        "Key-Systems GmbH": 1.1052668165071715,
        "Key-Systems GmbH ( https://nic.at/registrar/404 )": 0.0034756818129156337,
        "Key-Systems Gmbh": 0.006951363625831267,
        "Key-Systems LLC": 0.050976666589429294,
        "Key-Systems, LLC": 0.013902727251662535,
        "Knock Knock WHOIS There, LLC": 0.0034756818129156337,
        "LIVE-0016": 0.0034756818129156337,
        "Launchpad.com Inc.": 0.16799128762425564,
        "Layup Domains LLC": 0.0023171212086104225,
        "Leatherneckdomains.com, LLC": 0.0034756818129156337,
        "Ledl.net GmbH": 0.012744166647357323,
        "Ledl.net GmbH ( https://nic.at/registrar/407 )": 0.0034756818129156337,
        "Lexregistration Limited": 0.0034756818129156337,
        "Ligne Web Services SARL dba LWS": 0.11006325740899506,
        "LiquidNet Ltd.": 0.024329772690409434,
        "LiveDNS Ltd": 0.04981810598512408,
        "Loopia AB": 0.024329772690409434,
        "Loopia Group AB": 0.0034756818129156337,
        "LoopiaGroup2": 0.0011585606043052112,
        "MAFF Inc.": 0.23171212086104223,
        "MAT BAO CORPORATION": 0.07878212109275436,
        "MAXNAME-RU": 0.006951363625831267,
        "MULT-0077": 0.0034756818129156337,
        "Major League Domains, LLC": 0.0034756818129156337,
        "Marcaria.com International": 0.0034756818129156337,
        "Marcaria.com International Inc.": 0.0034756818129156337,
        "Marcaria.com International, Inc.": 0.023171212086104225,
        "MarkMonitor Inc.": 0.04054962115068239,
        "Mat Bao Corporation": 0.0034756818129156337,
        "Mesh Digital Limited": 0.0938434089487221,
        "Mesh Digital Ltd": 0.006951363625831267,
        "Metaregistrar BV": 0.011585606043052112,
        "Metaregistrar BV Applications": 0.0034756818129156337,
        "Mijn InternetOplossing B.V.": 0.013902727251662535,
        "Misk.com, Inc.": 0.0023171212086104225,
        "Moniker Online Services LLC": 1.3717357554973701,
        "Moniker Online Services, LLC": 0.0034756818129156337,
        "NAMEBAY": 0.0034756818129156337,
        "NAMECHEAP": 0.15408856037259308,
        "NAMESHIELD": 0.0034756818129156337,
        "NET-CHINESE": 0.0034756818129156337,
        "NETHOUSE-RU": 0.008109924230136479,
        "NETIM": 0.020854090877493802,
        "NETIM SARL": 0.0034756818129156337,
        "NETIM sarl": 0.032439696920545914,
        "NEUBOX Internet SA de CV": 0.0034756818129156337,
        "NIC CD Migration": 0.0011585606043052112,
        "NIC Chile": 0.04054962115068239,
        "NIC-VE": 0.0034756818129156337,
        "NICENIC INTERNATIONAL GROUP CO., LIMITED": 0.03707393933776676,
        "Name Connection Area LLC": 0.0034756818129156337,
        "Name SRS AB": 0.013902727251662535,
        "Name.com Inc. ( https://nic.at/registrar/620 )": 0.0034756818129156337,
        "Name.com LLC": 0.023171212086104225,
        "Name.com, Inc": 0.11469749982621591,
        "Name.com, Inc.": 2.066872118080497,
        "Name106, Inc.": 0.0011585606043052112,
        "NameCheap": 0.0034756818129156337,
        "NameCheap, Inc.": 16.39131542971013,
        "NamePal.com #8015, LLC": 0.0034756818129156337,
        "NamePal.com #8024, LLC": 0.005792803021526056,
        "NameSector LLC": 0.0034756818129156337,
        "NameSilo": 0.011585606043052112,
        "NameSilo, LLC": 13.03033111662071,
        "NameSilo,LLC": 1.145816437657854,
        "Namebay SAM": 0.00926848483444169,
        "Namecatch Zone LLC": 0.0034756818129156337,
        "Namecheap": 1.6428389369047895,
        "Namecheap Inc.": 0.15640568158120352,
        "Namecheap, Inc.": 0.05676946961095535,
        "Namecroc.com LLC": 0.0011585606043052112,
        "Nameling.com LLC": 0.0011585606043052112,
        "Names On The Drop LLC": 0.008109924230136479,
        "NamesAlaCarte.com LLC": 0.0034756818129156337,
        "Namescout Ltd": 0.006951363625831267,
        "Namesilo, LLC": 0.3823249994207197,
        "Net-Chinese Co., Ltd.": 0.008109924230136479,
        "NetArt Registrar Sp. z o.o.": 0.0034756818129156337,
        "NetEarth One Inc. d/b/a NetEarth": 0.09036772713580647,
        "NetEarth One Inc. dba NetEarth": 0.0034756818129156337,
        "NetTuner Corp. dba Webmasters.com": 0.09152628774011169,
        "Netowl, Inc.": 0.03707393933776676,
        "Netowl,Inc.": 0.0034756818129156337,
        "Netregistry Pty Ltd": 0.004634242417220845,
        "Nettuner Corp. dba Webmasters.com": 0.005792803021526056,
        "Network Solutions, LLC": 0.42866742359292814,
        "New Order Domains, LLC": 0.0011585606043052112,
        "Nhan Hoa Software Company Ltd.": 0.0034756818129156337,
        "Nics Telekomunikasyon A.S.": 0.006951363625831267,
        "Nics Telekomunikasyon Ticaret Ltd. Sti.": 0.0023171212086104225,
        "Nominalia Internet S.L.": 0.017378409064578167,
        "Noteworthydomains, LLC": 0.0034756818129156337,
        "NuNames.NU": 0.0034756818129156337,
        "ODERLAND": 0.008109924230136479,
        "ONE 2 NET": 0.020854090877493802,
        "OPENPROV-RU": 0.011585606043052112,
        "OVH": 0.18652825729313902,
        "OVH SAS": 0.0023171212086104225,
        "OVH sas": 0.5572676506708066,
        "OldWorldAliases.com LLC": 0.006951363625831267,
        "Omnis Network, LLC": 0.017378409064578167,
        "One.com": 0.013902727251662535,
        "One.com A/S": 0.008109924230136479,
        "Online SAS": 0.04054962115068239,
        "OnlineNIC Inc.": 0.006951363625831267,
        "OnlineNIC, Inc.": 0.045183863567903236,
        "OpenTLD B.V.": 0.015061287855967746,
        "Openprovider": 0.016219848460272957,
        "OwnRegistrar, Inc.": 0.02896401510763028,
        "P.A. Viet Nam Company Limited": 0.0011585606043052112,
        "PCHOME": 0.0034756818129156337,
        "PDR Ltd": 0.09036772713580647,
        "PDR Ltd.": 0.04981810598512408,
        "PDR Ltd. d/b/a PublicDomainRegistry.com": 3.3378131010033134,
        "PHPNET FRANCE SARL": 0.0011585606043052112,
        "PHPNET France DBA Nuxit": 0.006951363625831267,
        "PLANETHOSTER": 0.0034756818129156337,
        "PSI-USA, Inc. dba Domain Robot": 0.2583590147600621,
        "PT Registrasi Nama Domain": 0.0034756818129156337,
        "Paragon Internet Group Ltd t/a Paragon Names": 0.008109924230136479,
        "Park Avenue Capital, LLC": 0.0034756818129156337,
        "Peter Vratny - proserver1.at ( https://nic.at/registrar/327 )": 0.0034756818129156337,
        "Planeetta Internet Oy": 0.004634242417220845,
        "PlanetHoster Inc.": 0.010427045438746901,
        "Porkbun": 0.3116528025581018,
        "Porkbun LLC": 1.6880228004726927,
        "Porkbun, LLC": 0.28384734805477674,
        "Protocol Internet Technology Limited T/A Hosting Ireland": 0.0034756818129156337,
        "PublicDomainRegistry.com Inc": 0.0023171212086104225,
        "R01-RU": 0.2375049238825683,
        "R01-SU": 0.010427045438746901,
        "RD-RU": 0.006951363625831267,
        "REG-1API": 0.010427045438746901,
        "REG-361069": 0.013902727251662535,
        "REG-ACTIVE24": 0.010427045438746901,
        "REG-GRANSY": 0.04634242417220845,
        "REG-INTERNET-CZ": 0.02780545450332507,
        "REG-KEYSYSTEMS": 0.012744166647357323,
        "REG-OVH": 0.006951363625831267,
        "REG-TELE3": 0.012744166647357323,
        "REG-WEBGLOBE": 0.0034756818129156337,
        "REG-WEDOS": 0.03823249994207197,
        "REGISTRAR OF DOMAIN NAMES REG.RU LLC": 0.13091734828648888,
        "REGRU-RU": 0.5966587112171837,
        "REGRU-SU": 0.024329772690409434,
        "REGTIME-RU": 0.06951363625831267,
        "REGTIME-SU": 0.011585606043052112,
        "RT-RU": 0.0011585606043052112,
        "RU-CENTER-RU": 0.10774613620038465,
        "RUCENTER-SU": 0.0034756818129156337,
        "Realtime Register B.V.": 0.24213916629978915,
        "Rebel.ca Corp.": 0.0034756818129156337,
        "Regional Network Information Center, JSC dba RU-CENTER": 0.050976666589429294,
        "Register SPA": 0.09963621197024816,
        "Register.ca Inc.": 0.0034756818129156337,
        "Register.com, Inc.": 0.07530643927983872,
        "Registrar NIC .DO (midominio.do)": 0.0034756818129156337,
        "Registrar R01 LLC": 0.0023171212086104225,
        "Registrar of Domain Names REG.RU LLC": 0.04286674235929282,
        "Registrar of Domain Names REG.RU, LLC": 0.11469749982621591,
        "Registrar of domain names REG.RU": 0.0034756818129156337,
        "Registrar.eu": 0.016219848460272957,
        "Registrar.eu ( https://nic.at/registrar/648 )": 0.0034756818129156337,
        "RegistryGate GmbH": 0.035915378733461546,
        "RegistryGate GmbH ( https://nic.at/registrar/228 )": 0.0023171212086104225,
        "Regtime Ltd": 0.0034756818129156337,
        "Regtime Ltd.": 0.06603795444539703,
        "ResellerCamp": 0.0011585606043052112,
        "Rymdweb AB": 0.0034756818129156337,
        "SALENAMES-RU": 0.054452348402344926,
        "SAS Ligne Web Services - LWS": 0.0034756818129156337,
        "SCALEWAY": 0.0023171212086104225,
        "SCALEWAY (ONLINE SAS)": 0.006951363625831267,
        "SNAPNAMES 10, LLC": 0.0034756818129156337,
        "SNAPNAMES 12, LLC": 0.0034756818129156337,
        "SNAPNAMES 14, LLC": 0.0034756818129156337,
        "SNAPNAMES 15, LLC": 0.0034756818129156337,
        "SNAPNAMES 24, LLC": 0.0034756818129156337,
        "SNAPNAMES 25, LLC": 0.0034756818129156337,
        "SNAPNAMES 67, LLC": 0.0034756818129156337,
        "SNAPNAMES 69, LLC": 0.0034756818129156337,
        "SNAPNAMES 86, LLC": 0.0034756818129156337,
        "SNAPNAMES 96, LLC": 0.0034756818129156337,
        "SOLUCIONES CORPORATIVAS IP": 0.0034756818129156337,
        "SOS WEB": 0.0034756818129156337,
        "SW Hosting & Communications Technologies SL dba Serveisweb": 0.0034756818129156337,
        "SYNERGY WHOLESALE ACCREDITATIONS PTY LTD": 0.013902727251662535,
        "SafeNames Ltd.": 0.20969946937924322,
        "Safenames Ltd": 0.024329772690409434,
        "Sammamishdomains.com LLC": 0.0034756818129156337,
        "Sarek Oy": 0.04286674235929282,
        "Sav.com LLC": 0.46226568111777927,
        "Sav.com, LLC": 0.6847093171443798,
        "Sav.com, LLC - 1": 0.0034756818129156337,
        "Sav.com, LLC - 14": 0.006951363625831267,
        "Sav.com, LLC - 15": 0.0034756818129156337,
        "Sav.com, LLC - 16": 0.0034756818129156337,
        "Sav.com, LLC - 17": 0.0034756818129156337,
        "Sav.com, LLC - 30": 0.0023171212086104225,
        "Sav.com, LLC - 34": 0.0034756818129156337,
        "Sav.com, LLC - 41": 0.004634242417220845,
        "Sav.com, LLC- 2": 0.006951363625831267,
        "Sav.com, LLC- 7": 0.0034756818129156337,
        "Sav.com, LLC- 9": 0.0023171212086104225,
        "Sea Wasp, LLC": 0.7704428018629654,
        "SearchNResQ, LLC": 0.0034756818129156337,
        "Serbia Broadband - Srpske kablovske mreže": 0.0034756818129156337,
        "Server Plan Srl": 0.0023171212086104225,
        "Shanghai Meicheng Technology Information Development Co., Ltd.": 0.013902727251662535,
        "Shinjiru Technology Sdn Bhd": 0.04750098477651366,
        "Simply.com": 0.0034756818129156337,
        "Soaring Eagle Domains, LLC": 0.006951363625831267,
        "Soluciones Corporativas IP SLU": 0.006951363625831267,
        "Soluciones Corporativas IP, S.L.U.": 0.006951363625831267,
        "Soluciones Corporativas IP, SL": 0.2699446208031142,
        "Soluciones Corporativas IP, SLU": 0.0023171212086104225,
        "SpeedPartner GmbH ( https://nic.at/registrar/497 )": 0.00926848483444169,
        "Squarespace Domains LLC": 0.006951363625831267,
        "Sssasss, LLC": 0.0011585606043052112,
        "Stork R, informacijske storitve, d.o.o.": 0.0034756818129156337,
        "Swordfish Domains LLC": 0.006951363625831267,
        "Synergy Wholesale Pty Ltd": 0.00926848483444169,
        "TES Euro Media SRL": 0.0034756818129156337,
        "THCServers SRL": 0.02780545450332507,
        "TIMEWEB-RU": 0.008109924230136479,
        "TLD Registrar Solutions Ltd": 0.14134439372523577,
        "TLD Registrar Solutions Ltd.": 0.3058599995365758,
        "TLDS L.L.C. d/b/a SRSPlus": 0.10195333317885859,
        "Tecnocratica Centro de Datos, S.L.": 0.006951363625831267,
        "TeliaSonera": 0.0011585606043052112,
        "Terrific.com.au Pty Ltd": 0.0034756818129156337,
        "The Domains LLC": 0.0034756818129156337,
        "The Registrar Company B.V.": 0.008109924230136479,
        "Total Web Solutions Limited trading as TotalRegistrations": 0.0034756818129156337,
        "Travel Domains, LLC": 0.0034756818129156337,
        "Tucows": 0.0011585606043052112,
        "Tucows Domains Inc": 0.0034756818129156337,
        "Tucows Domains Inc.": 1.4678962856547026,
        "Tucows Inc.": 0.0034756818129156337,
        "Tucows.com Co": 0.04750098477651366,
        "Tucows.com Co.": 0.032439696920545914,
        "Turbonames LLC": 0.004634242417220845,
        "Turkticaret.net Yazilim Hizmetleri Sanayi ve Ticaret A.S.": 0.0034756818129156337,
        "Turkticaret.net Yazılım Hizmetleri Sanayi ve Ticaret A.Ş.": 0.0034756818129156337,
        "TurnCommerce, Inc. DBA NameBright.com": 0.060245151423870984,
        "UK-2 Limited": 0.006951363625831267,
        "URL Solutions Inc.": 0.2062237875663276,
        "URL Solutions, Inc.": 1.3311861343466878,
        "Uniregistrar Corp": 0.04402530296359802,
        "United-Domains AG": 0.030122575711935492,
        "Variomedia AG": 0.006951363625831267,
        "Vautron Rechenzentrum AG": 0.09616053015733253,
        "Vautron Rechenzentrum AG ( https://nic.at/registrar/610 )": 0.0034756818129156337,
        "Virtualia LLC": 0.006951363625831267,
        "WEBG-0001": 0.0034756818129156337,
        "WEBNAMES-RU": 0.006951363625831267,
        "WEBS-0001": 0.01969553027318859,
        "WEDOS Internet, a.s.": 0.0034756818129156337,
        "Web Address Registration Pty Ltd": 0.01853696966888338,
        "Web Commerce Communications Limited dba WebNic.cc": 0.07530643927983872,
        "Web Commerce Communications Ltd": 0.0034756818129156337,
        "Web Widgets Ltd": 0.0011585606043052112,
        "Web Widgets Ltd t/a Website World": 0.0011585606043052112,
        "Webair Internet Development, Inc.": 0.020854090877493802,
        "Webnames.ca Inc.": 0.0034756818129156337,
        "West263 International Limited": 0.013902727251662535,
        "Wide Right Domains LLC": 0.0011585606043052112,
        "Wild West Domains, Inc.": 0.010427045438746901,
        "Wild West Domains, LLC": 0.42866742359292814,
        "Wix.com Ltd.": 0.0625622726324814,
        "World4You Internet Services GmbH ( https://nic.at/registrar/61 )": 0.006951363625831267,
        "WorthyDomains LLC": 0.0023171212086104225,
        "Xiamen ChinaSource Internet Service Co., Ltd": 0.0034756818129156337,
        "Xin Net Technology Corporation": 0.016219848460272957,
        "ZHENGZHOU CENTURY CONNECT ELECTRONIC TECHNOLOGY DEVELOPMENT CO., LTD": 0.006951363625831267,
        "ZOZN-0001": 0.0034756818129156337,
        "Zhuimi Inc": 0.004634242417220845,
        "Zone Media LLC": 0.0034756818129156337,
        "Zoner Oy": 0.0034756818129156337,
        "ZoomRegistrar LLC": 0.0034756818129156337,
        "co.imena": 0.0034756818129156337,
        "dogado GmbH ( https://nic.at/registrar/622 )": 0.0023171212086104225,
        "domainfactory GmbH ( https://nic.at/registrar/202 )": 0.0034756818129156337,
        "domene.si": 0.0034756818129156337,
        "eDomains LLC": 0.0034756818129156337,
        "eNOM, Inc": 0.0034756818129156337,
        "eName Technology Co., Ltd.": 0.0023171212086104225,
        "eNom, Inc.": 0.03823249994207197,
        "eNom, LLC": 1.0519730287091318,
        "easyDNS Technologies Inc.": 0.010427045438746901,
        "friendlynet meyer & strigl OG ( https://nic.at/registrar/304 )": 0.0034756818129156337,
        "globalar (GlobalAR LLC)": 0.0011585606043052112,
        "http.net Internet GmbH": 0.0034756818129156337,
        "humbly, LLC ccTLD": 0.0023171212086104225,
        "mCloud doo": 0.0034756818129156337,
        "nicar": 0.12975878768218366,
        "total": 99.99999999999993,
        "ua.drs": 0.0034756818129156337,
        "ua.hvosting": 0.0011585606043052112,
        "ua.imena": 0.02201265148179901,
        "ua.nic": 0.0023171212086104225,
        "ua.sitevalley": 0.0011585606043052112,
        "ua.thehost": 0.006951363625831267,
        "ua.ukraine": 0.0312811363162407,
        "united-domains AG": 0.023171212086104225,
        "west263 International Limited": 0.0034756818129156337,
        "www.NameSRS.com": 0.008109924230136479,
        "İsimtescil Bilişim A.Ş.": 0.0034756818129156337,
        "广州云讯信息科技有限公司": 0.0034756818129156337,
        "成都西维数码科技有限公司": 0.0034756818129156337,
        "江苏邦宁科技有限公司": 0.0034756818129156337,
        "河南微创网络科技有限公司（中网互联）": 0.0034756818129156337,
        "郑州世纪创联电子科技开发有限公司": 0.0011585606043052112
    }
}