{
    "counter": {
        "ACTIVE": 35714,
        "INACTIVE": 820,
        "INVALID": 0,
        "MALICIOUS": 0,
        "SANE": 0,
        "VALID": 0,
        "total": 36534
    },
    "percentage": {
        "ACTIVE": 97.75551541030273,
        "INACTIVE": 2.2445460268798074,
        "INVALID": 0,
        "MALICIOUS": 0,
        "SANE": 0,
        "VALID": 0,
        "total": 100.00006143718254
    }
}