{
    "counter": {
        "ACTIVE": 596363,
        "INACTIVE": 5931,
        "INVALID": 0,
        "MALICIOUS": 0,
        "SANE": 0,
        "VALID": 0,
        "total": 602294
    },
    "percentage": {
        "ACTIVE": 99.01526497026369,
        "INACTIVE": 0.9855073427026596,
        "INVALID": 0,
        "MALICIOUS": 0,
        "SANE": 0,
        "VALID": 0,
        "total": 100.00077231296635
    }
}